{
com.badlogic.gdx.graphics.Color: {
	green: { g: 1, a: 1 },
	light_grey: { r: 0.8, g: 0.8, b: 0.8, a: 1 },
	white: { r: 1, g: 1, b: 1, a: 1 },
	off-white: { r: 0.93333334, g: 0.93333334, b: 0.93333334, a: 1 },
	red: { r: 1, a: 1 },
	grey: { r: 0.7, g: 0.7, b: 0.7, a: 1 },
	dark_grey: { r: 0.17254902, g: 0.17254902, b: 0.17254902, a: 1 },
	black: { a: 1 }
},
com.badlogic.gdx.graphics.g2d.BitmapFont: {
	default-font: { file: default.fnt }
},
com.badlogic.gdx.scenes.scene2d.ui.Skin$TintedDrawable: {
	dialogDim: {
		name: white,
		color: { a: 1, b: 0.2, g: 0.2, r: 0.2 }
	}
},
com.badlogic.gdx.scenes.scene2d.ui.ProgressBar$ProgressBarStyle: {
	default: { background: default-scroll, knobBefore: default-round-large }
},
com.badlogic.gdx.scenes.scene2d.ui.TextButton$TextButtonStyle: {
	default: {
		font: font24,
		fontColor: { a: 1, b: 0.93333334, g: 0.93333334, r: 0.93333334 },
		disabledFontColor: { a: 1, b: 0.7, g: 0.7, r: 0.7 },
		up: btn,
		down: btn_pressed
	},
	white: {
		font: font24,
		fontColor: { a: 1, b: 0.93333334, g: 0.93333334, r: 0.93333334 },
		up: btn_white,
		down: btn
	},
	toggle: {
		font: font24,
		fontColor: { a: 1, b: 0.93333334, g: 0.93333334, r: 0.93333334 },
		up: btn,
		down: btn_pressed,
		checked: btn_pressed
	}
},
com.badlogic.gdx.scenes.scene2d.ui.ImageButton$ImageButtonStyle: {
	default: { up: btn, down: btn_pressed }
},
com.badlogic.gdx.scenes.scene2d.ui.SplitPane$SplitPaneStyle: {
	default-vertical: { handle: default-splitpane-vertical },
	default-horizontal: { handle: default-splitpane }
},
com.badlogic.gdx.scenes.scene2d.ui.Touchpad$TouchpadStyle: {
	default: { background: default-pane, knob: default-round-large }
},
com.badlogic.gdx.scenes.scene2d.ui.Button$ButtonStyle: {
	default: { up: default-round, down: default-round-down },
	white: { up: btn_white, down: btn },
	toggle: { up: btn, down: btn_pressed, checked: btn_pressed }
},
com.badlogic.gdx.scenes.scene2d.ui.Window$WindowStyle: {
	default: {
		background: profile_background2,
		titleFont: font24,
		titleFontColor: { a: 1, b: 1, g: 1, r: 1 }
	},
	dialog: {
		background: profile_background2,
		titleFont: font24,
		titleFontColor: { a: 1, b: 1, g: 1, r: 1 },
		stageBackground: dialogDim
	}
},
com.badlogic.gdx.scenes.scene2d.ui.TextField$TextFieldStyle: {
	default: {
		font: font24,
		fontColor: { a: 1, b: 1, g: 1, r: 1 },
		background: textfield,
		cursor: cursor,
		selection: selection
	}
},
com.badlogic.gdx.scenes.scene2d.ui.ScrollPane$ScrollPaneStyle: {
	default: {
		background: default-rect,
		hScroll: default-scroll,
		hScrollKnob: default-round-large,
		vScroll: default-scroll,
		vScrollKnob: default-round-large
	}
},
com.badlogic.gdx.scenes.scene2d.ui.Label$LabelStyle: {
	optional: {
		font: font24,
		fontColor: { a: 1, b: 0.7, g: 0.7, r: 0.7 }
	},
	default: {
		font: font24,
		fontColor: { a: 1, b: 0.93333334, g: 0.93333334, r: 0.93333334 }
	},
	error: {
		font: font24,
		fontColor: { a: 1, r: 1 }
	},
	white-bg: {
		font: font24,
		fontColor: { a: 1, b: 0.93333334, g: 0.93333334, r: 0.93333334 },
		background: white
	},
	dark: {
		font: font24,
		fontColor: { a: 1, b: 0.17254902, g: 0.17254902, r: 0.17254902 }
	},
	title: {
		font: font24,
		fontColor: { a: 1, b: 0.93333334, g: 0.93333334, r: 0.93333334 }
	}
},
com.badlogic.gdx.scenes.scene2d.ui.List$ListStyle: {
	default: {
		font: font24,
		fontColorSelected: { a: 1, b: 1, g: 1, r: 1 },
		fontColorUnselected: { a: 1, b: 1, g: 1, r: 1 },
		selection: btn_pressed
	},
	dimmed: {
		font: font24,
		fontColorSelected: { a: 1, b: 1, g: 1, r: 1 },
		fontColorUnselected: { a: 1, b: 1, g: 1, r: 1 },
		selection: btn_pressed,
		background: dialogDim
	}
},
com.badlogic.gdx.scenes.scene2d.ui.CheckBox$CheckBoxStyle: {
	default: {
		checkboxOn: checkbox_on,
		checkboxOff: checkbox_off,
		font: font24,
		fontColor: { a: 1, b: 0.17254902, g: 0.17254902, r: 0.17254902 }
	}
},
com.badlogic.gdx.scenes.scene2d.ui.Tree$TreeStyle: {
	default: { plus: tree-plus, minus: tree-minus, selection: default-select-selection }
},
com.badlogic.gdx.scenes.scene2d.ui.Slider$SliderStyle: {
	default-vertical: { background: default-slider, knob: default-slider-knob },
	default-horizontal: { background: default-slider, knob: default-slider-knob }
},
com.badlogic.gdx.scenes.scene2d.ui.SelectBox$SelectBoxStyle: {
	default: {
		font: font24,
		fontColor: { a: 1, b: 1, g: 1, r: 1 },
		background: default-select,
		scrollStyle: default,
		listStyle: default
	}
}
}